<svg width="34" height="182" viewBox="0 0 34 182" fill="none" xmlns="http://www.w3.org/2000/svg">
<g opacity="0.4">
<circle cx="9.64131" cy="4.77412" r="4.77412" fill="#F2C94C"/>
<circle cx="28.7429" cy="4.77412" r="4.77412" fill="#F2C94C"/>
<circle cx="9.64131" cy="23.8708" r="4.77412" fill="#F2C94C"/>
<circle cx="28.7429" cy="23.8708" r="4.77412" fill="#F2C94C"/>
<circle cx="9.64131" cy="42.967" r="4.77412" fill="#F2C94C"/>
<circle cx="28.7429" cy="42.967" r="4.77412" fill="#F2C94C"/>
<circle cx="9.64131" cy="62.0637" r="4.77412" fill="#F2C94C"/>
<circle cx="28.7429" cy="62.0637" r="4.77412" fill="#F2C94C"/>
<circle cx="9.64131" cy="81.1599" r="4.77412" fill="#F2C94C"/>
<circle cx="28.7429" cy="81.1599" r="4.77412" fill="#F2C94C"/>
<circle cx="9.64131" cy="100.257" r="4.77412" fill="#F2C94C"/>
<circle cx="28.7429" cy="100.257" r="4.77412" fill="#F2C94C"/>
<circle cx="9.64131" cy="119.353" r="4.77412" fill="#F2C94C"/>
<circle cx="28.7429" cy="119.353" r="4.77412" fill="#F2C94C"/>
<circle cx="9.64131" cy="138.449" r="4.77412" fill="#F2C94C"/>
<circle cx="28.7429" cy="138.449" r="4.77412" fill="#F2C94C"/>
<circle cx="9.64131" cy="157.546" r="4.77412" fill="#F2C94C"/>
<circle cx="28.7429" cy="157.546" r="4.77412" fill="#F2C94C"/>
<circle cx="9.64131" cy="176.642" r="4.77412" fill="#F2C94C"/>
<circle cx="28.7429" cy="176.642" r="4.77412" fill="#F2C94C"/>
</g>
</svg>
