<svg width="218" height="30" viewBox="0 0 218 30" fill="none" xmlns="http://www.w3.org/2000/svg">
<g opacity="0.5">
<circle r="5" transform="matrix(-1 0 0 1 193 5)" fill="#F9CE41"/>
<circle r="5" transform="matrix(-1 0 0 1 173 5)" fill="#F9CE41"/>
<circle r="5" transform="matrix(-1 0 0 1 153 5)" fill="#F9CE41"/>
<circle r="5" transform="matrix(-1 0 0 1 133 5)" fill="#F9CE41"/>
<circle r="5" transform="matrix(-1 0 0 1 113 5)" fill="#F9CE41"/>
<circle r="5" transform="matrix(-1 0 0 1 93 5)" fill="#F9CE41"/>
<circle r="5" transform="matrix(-1 0 0 1 73 5)" fill="#F9CE41"/>
<circle r="5" transform="matrix(-1 0 0 1 53 5)" fill="#F9CE41"/>
<circle r="5" transform="matrix(-1 0 0 1 33 5)" fill="#F9CE41"/>
<circle r="5" transform="matrix(-1 0 0 1 13 5)" fill="#F9CE41"/>
</g>
<g opacity="0.5">
<circle r="5" transform="matrix(-1 0 0 1 213 25)" fill="#F9CE41"/>
<circle r="5" transform="matrix(-1 0 0 1 193 25)" fill="#F9CE41"/>
<circle r="5" transform="matrix(-1 0 0 1 173 25)" fill="#F9CE41"/>
<circle r="5" transform="matrix(-1 0 0 1 153 25)" fill="#F9CE41"/>
<circle r="5" transform="matrix(-1 0 0 1 133 25)" fill="#F9CE41"/>
<circle r="5" transform="matrix(-1 0 0 1 113 25)" fill="#F9CE41"/>
<circle r="5" transform="matrix(-1 0 0 1 93 25)" fill="#F9CE41"/>
<circle r="5" transform="matrix(-1 0 0 1 73 25)" fill="#F9CE41"/>
<circle r="5" transform="matrix(-1 0 0 1 53 25)" fill="#F9CE41"/>
<circle r="5" transform="matrix(-1 0 0 1 33 25)" fill="#F9CE41"/>
<circle r="5" transform="matrix(-1 0 0 1 13 25)" fill="#F9CE41"/>
</g>
</svg>
