<svg width="710" height="291" viewBox="0 0 710 291" fill="none" xmlns="http://www.w3.org/2000/svg">
<rect width="710" height="291" rx="20" fill="#FFD460"/>
<path opacity="0.6" fill-rule="evenodd" clip-rule="evenodd" d="M710 58.19C668.394 38.8479 620.019 33.4551 572.233 46.2593C465.28 74.9173 401.35 183.994 428.069 291.001H509.577C507.314 285.667 505.394 280.112 503.851 274.356C485.971 207.626 525.571 139.036 592.301 121.156C635.512 109.578 679.504 122.103 710 150.489V58.19Z" fill="url(#paint0_linear)"/>
<path opacity="0.4" fill-rule="evenodd" clip-rule="evenodd" d="M1.52588e-05 181.831C19.4557 172.786 42.0764 170.265 64.4217 176.252C114.434 189.653 144.329 240.659 131.835 290.696H93.7201C94.7786 288.202 95.6764 285.605 96.3977 282.913C104.759 251.709 86.2411 219.636 55.0375 211.275C34.8314 205.861 14.2605 211.717 1.52588e-05 224.991V181.831Z" fill="url(#paint1_linear)"/>
<defs>
<linearGradient id="paint0_linear" x1="523.27" y1="120.72" x2="670.344" y2="288.057" gradientUnits="userSpaceOnUse">
<stop stop-color="#F5BD24"/>
<stop offset="1" stop-color="#FFD460"/>
</linearGradient>
<linearGradient id="paint1_linear" x1="87.3172" y1="211.071" x2="18.5436" y2="289.319" gradientUnits="userSpaceOnUse">
<stop stop-color="#F5BD24"/>
<stop offset="1" stop-color="#FFD460"/>
</linearGradient>
</defs>
</svg>
