<svg width="84" height="105" viewBox="0 0 84 105" fill="none" xmlns="http://www.w3.org/2000/svg">
<g opacity="0.4">
<circle cx="2.5" cy="2.5" r="2.5" fill="#F9CE41"/>
<circle cx="12.5" cy="2.5" r="2.5" fill="#F9CE41"/>
<circle cx="22.5" cy="2.5" r="2.5" fill="#F9CE41"/>
<circle cx="32.5" cy="2.5" r="2.5" fill="#F9CE41"/>
<circle cx="42.5" cy="2.5" r="2.5" fill="#F9CE41"/>
<circle cx="52.5" cy="2.5" r="2.5" fill="#F9CE41"/>
<circle cx="62.5" cy="2.5" r="2.5" fill="#F9CE41"/>
<circle cx="72.5" cy="2.5" r="2.5" fill="#F9CE41"/>
<circle cx="82.5" cy="2.5" r="2.5" fill="#F9CE41"/>
<circle cx="2.5" cy="12.5" r="2.5" fill="#F9CE41"/>
<circle cx="12.5" cy="12.5" r="2.5" fill="#F9CE41"/>
<circle cx="22.5" cy="12.5" r="2.5" fill="#F9CE41"/>
<circle cx="32.5" cy="12.5" r="2.5" fill="#F9CE41"/>
<circle cx="42.5" cy="12.5" r="2.5" fill="#F9CE41"/>
<circle cx="52.5" cy="12.5" r="2.5" fill="#F9CE41"/>
<circle cx="62.5" cy="12.5" r="2.5" fill="#F9CE41"/>
<circle cx="72.5" cy="12.5" r="2.5" fill="#F9CE41"/>
<circle cx="82.5" cy="12.5" r="2.5" fill="#F9CE41"/>
<circle cx="2.5" cy="22.5" r="2.5" fill="#F9CE41"/>
<circle cx="12.5" cy="22.5" r="2.5" fill="#F9CE41"/>
<circle cx="22.5" cy="22.5" r="2.5" fill="#F9CE41"/>
<circle cx="32.5" cy="22.5" r="2.5" fill="#F9CE41"/>
<circle cx="42.5" cy="22.5" r="2.5" fill="#F9CE41"/>
<circle cx="52.5" cy="22.5" r="2.5" fill="#F9CE41"/>
<circle cx="62.5" cy="22.5" r="2.5" fill="#F9CE41"/>
<circle cx="72.5" cy="22.5" r="2.5" fill="#F9CE41"/>
<circle cx="82.5" cy="22.5" r="2.5" fill="#F9CE41"/>
<circle cx="2.5" cy="32.5" r="2.5" fill="#F9CE41"/>
<circle cx="12.5" cy="32.5" r="2.5" fill="#F9CE41"/>
<circle cx="22.5" cy="32.5" r="2.5" fill="#F9CE41"/>
<circle cx="32.5" cy="32.5" r="2.5" fill="#F9CE41"/>
<circle cx="42.5" cy="32.5" r="2.5" fill="#F9CE41"/>
<circle cx="52.5" cy="32.5" r="2.5" fill="#F9CE41"/>
<circle cx="62.5" cy="32.5" r="2.5" fill="#F9CE41"/>
<circle cx="72.5" cy="32.5" r="2.5" fill="#F9CE41"/>
<circle cx="82.5" cy="32.5" r="2.5" fill="#F9CE41"/>
<circle cx="2.5" cy="42.5" r="2.5" fill="#F9CE41"/>
<circle cx="12.5" cy="42.5" r="2.5" fill="#F9CE41"/>
<circle cx="22.5" cy="42.5" r="2.5" fill="#F9CE41"/>
<circle cx="32.5" cy="42.5" r="2.5" fill="#F9CE41"/>
<circle cx="42.5" cy="42.5" r="2.5" fill="#F9CE41"/>
<circle cx="52.5" cy="42.5" r="2.5" fill="#F9CE41"/>
<circle cx="62.5" cy="42.5" r="2.5" fill="#F9CE41"/>
<circle cx="72.5" cy="42.5" r="2.5" fill="#F9CE41"/>
<circle cx="82.5" cy="42.5" r="2.5" fill="#F9CE41"/>
<circle cx="2.5" cy="52.5" r="2.5" fill="#F9CE41"/>
<circle cx="12.5" cy="52.5" r="2.5" fill="#F9CE41"/>
<circle cx="22.5" cy="52.5" r="2.5" fill="#F9CE41"/>
<circle cx="32.5" cy="52.5" r="2.5" fill="#F9CE41"/>
<circle cx="42.5" cy="52.5" r="2.5" fill="#F9CE41"/>
<circle cx="52.5" cy="52.5" r="2.5" fill="#F9CE41"/>
<circle cx="62.5" cy="52.5" r="2.5" fill="#F9CE41"/>
<circle cx="72.5" cy="52.5" r="2.5" fill="#F9CE41"/>
<circle cx="82.5" cy="52.5" r="2.5" fill="#F9CE41"/>
<circle cx="2.5" cy="62.5" r="2.5" fill="#F9CE41"/>
<circle cx="12.5" cy="62.5" r="2.5" fill="#F9CE41"/>
<circle cx="22.5" cy="62.5" r="2.5" fill="#F9CE41"/>
<circle cx="32.5" cy="62.5" r="2.5" fill="#F9CE41"/>
<circle cx="42.5" cy="62.5" r="2.5" fill="#F9CE41"/>
<circle cx="52.5" cy="62.5" r="2.5" fill="#F9CE41"/>
<circle cx="62.5" cy="62.5" r="2.5" fill="#F9CE41"/>
<circle cx="72.5" cy="62.5" r="2.5" fill="#F9CE41"/>
<circle cx="82.5" cy="62.5" r="2.5" fill="#F9CE41"/>
<circle cx="2.5" cy="72.5" r="2.5" fill="#F9CE41"/>
<circle cx="12.5" cy="72.5" r="2.5" fill="#F9CE41"/>
<circle cx="22.5" cy="72.5" r="2.5" fill="#F9CE41"/>
<circle cx="32.5" cy="72.5" r="2.5" fill="#F9CE41"/>
<circle cx="42.5" cy="72.5" r="2.5" fill="#F9CE41"/>
<circle cx="52.5" cy="72.5" r="2.5" fill="#F9CE41"/>
<circle cx="62.5" cy="72.5" r="2.5" fill="#F9CE41"/>
<circle cx="72.5" cy="72.5" r="2.5" fill="#F9CE41"/>
<circle cx="82.5" cy="72.5" r="2.5" fill="#F9CE41"/>
<circle cx="2.5" cy="82.5" r="2.5" fill="#F9CE41"/>
<circle cx="12.5" cy="82.5" r="2.5" fill="#F9CE41"/>
<circle cx="22.5" cy="82.5" r="2.5" fill="#F9CE41"/>
<circle cx="32.5" cy="82.5" r="2.5" fill="#F9CE41"/>
<circle cx="42.5" cy="82.5" r="2.5" fill="#F9CE41"/>
<circle cx="52.5" cy="82.5" r="2.5" fill="#F9CE41"/>
<circle cx="62.5" cy="82.5" r="2.5" fill="#F9CE41"/>
<circle cx="72.5" cy="82.5" r="2.5" fill="#F9CE41"/>
<circle cx="82.5" cy="82.5" r="2.5" fill="#F9CE41"/>
<circle cx="2.5" cy="92.5" r="2.5" fill="#F9CE41"/>
<circle cx="12.5" cy="92.5" r="2.5" fill="#F9CE41"/>
<circle cx="22.5" cy="92.5" r="2.5" fill="#F9CE41"/>
<circle cx="32.5" cy="92.5" r="2.5" fill="#F9CE41"/>
<circle cx="42.5" cy="92.5" r="2.5" fill="#F9CE41"/>
<circle cx="52.5" cy="92.5" r="2.5" fill="#F9CE41"/>
<circle cx="62.5" cy="92.5" r="2.5" fill="#F9CE41"/>
<circle cx="72.5" cy="92.5" r="2.5" fill="#F9CE41"/>
<circle cx="82.5" cy="92.5" r="2.5" fill="#F9CE41"/>
<circle cx="2.5" cy="102.5" r="2.5" fill="#F9CE41"/>
<circle cx="12.5" cy="102.5" r="2.5" fill="#F9CE41"/>
<circle cx="22.5" cy="102.5" r="2.5" fill="#F9CE41"/>
<circle cx="32.5" cy="102.5" r="2.5" fill="#F9CE41"/>
<circle cx="42.5" cy="102.5" r="2.5" fill="#F9CE41"/>
<circle cx="52.5" cy="102.5" r="2.5" fill="#F9CE41"/>
<circle cx="62.5" cy="102.5" r="2.5" fill="#F9CE41"/>
<circle cx="72.5" cy="102.5" r="2.5" fill="#F9CE41"/>
<circle cx="82.5" cy="102.5" r="2.5" fill="#F9CE41"/>
</g>
</svg>
