<svg width="38" height="120" viewBox="0 0 38 120" fill="none" xmlns="http://www.w3.org/2000/svg">
<path d="M37 119L1 60L37 1" stroke="#BEBEBE" stroke-width="2" stroke-linecap="round" stroke-linejoin="round"/>
</svg>
