<svg width="20" height="16" viewBox="0 0 20 16" fill="none" xmlns="http://www.w3.org/2000/svg">
<path opacity="0.1" d="M18 0H2C0.9 0 0.00999999 0.892392 0.00999999 1.98309L0 13.8817C0 14.9724 0.9 15.8647 2 15.8647H18C19.1 15.8647 20 14.9724 20 13.8817V1.98309C20 0.892392 19.1 0 18 0ZM18 3.96619L10 8.92392L2 3.96619V1.98309L10 6.94083L18 1.98309V3.96619Z" fill="black"/>
</svg>
