<svg width="50" height="50" viewBox="0 0 50 50" fill="none" xmlns="http://www.w3.org/2000/svg">
<rect opacity="0.4" width="50" height="50" rx="10" fill="#D0ECFF"/>
<path d="M25 27C26.66 27 28 25.66 28 24V18C28 16.34 26.66 15 25 15C23.34 15 22 16.34 22 18V24C22 25.66 23.34 27 25 27ZM30.91 24C30.42 24 30.01 24.36 29.93 24.85C29.52 27.2 27.47 29 25 29C22.53 29 20.48 27.2 20.07 24.85C19.99 24.36 19.58 24 19.09 24C18.48 24 18 24.54 18.09 25.14C18.58 28.14 20.98 30.49 24 30.92V33C24 33.55 24.45 34 25 34C25.55 34 26 33.55 26 33V30.92C29.02 30.49 31.42 28.14 31.91 25.14C32.01 24.54 31.52 24 30.91 24Z" fill="#0099FF"/>
</svg>
