<svg width="194" height="50" viewBox="0 0 194 50" fill="none" xmlns="http://www.w3.org/2000/svg">
<rect width="194" height="50" rx="25" fill="url(#paint0_linear)"/>
<circle cx="27" cy="25" r="21" transform="rotate(-180 27 25)" fill="url(#paint1_linear)"/>
<path d="M33.5 24.134C34.1667 24.5189 34.1667 25.4811 33.5 25.866L24.5 31.0622C23.8333 31.4471 23 30.966 23 30.1962L23 19.8038C23 19.034 23.8333 18.5529 24.5 18.9378L33.5 24.134Z" fill="white"/>
<path d="M83.778 18.562L81.492 31H78.396L76.506 21.082L74.562 31H71.556L69.306 18.562H71.664L73.248 29.11L75.282 18.562H77.802L79.8 29.11L81.528 18.562H83.778ZM91.9435 28.48C91.9435 28.852 91.9975 29.128 92.1055 29.308C92.2255 29.476 92.4115 29.608 92.6635 29.704L92.1775 31.234C91.6375 31.186 91.1935 31.054 90.8455 30.838C90.5095 30.622 90.2515 30.292 90.0715 29.848C89.7475 30.328 89.3395 30.688 88.8475 30.928C88.3675 31.156 87.8275 31.27 87.2275 31.27C86.2795 31.27 85.5295 31 84.9775 30.46C84.4255 29.92 84.1495 29.212 84.1495 28.336C84.1495 27.304 84.5215 26.518 85.2655 25.978C86.0215 25.426 87.0955 25.15 88.4875 25.15H89.6755V24.61C89.6755 23.998 89.5315 23.572 89.2435 23.332C88.9675 23.08 88.5175 22.954 87.8935 22.954C87.1975 22.954 86.3575 23.122 85.3735 23.458L84.8335 21.892C86.0215 21.436 87.1735 21.208 88.2895 21.208C90.7255 21.208 91.9435 22.3 91.9435 24.484V28.48ZM87.8395 29.596C88.6195 29.596 89.2315 29.206 89.6755 28.426V26.5H88.7215C87.2335 26.5 86.4895 27.052 86.4895 28.156C86.4895 28.612 86.6035 28.966 86.8315 29.218C87.0595 29.47 87.3955 29.596 87.8395 29.596ZM100.186 30.55C99.8497 30.79 99.4717 30.97 99.0517 31.09C98.6437 31.21 98.2237 31.27 97.7917 31.27C96.8557 31.258 96.1417 30.994 95.6497 30.478C95.1697 29.95 94.9297 29.176 94.9297 28.156V23.134H93.4357V21.478H94.9297V19.372L97.2337 19.102V21.478H99.4477L99.2137 23.134H97.2337V28.102C97.2337 28.57 97.3117 28.906 97.4677 29.11C97.6357 29.314 97.8937 29.416 98.2417 29.416C98.5897 29.416 98.9677 29.302 99.3757 29.074L100.186 30.55ZM105.017 21.208C105.641 21.208 106.199 21.298 106.691 21.478C107.195 21.658 107.669 21.94 108.113 22.324L107.087 23.71C106.763 23.47 106.451 23.296 106.151 23.188C105.851 23.08 105.521 23.026 105.161 23.026C103.733 23.026 103.019 24.112 103.019 26.284C103.019 27.388 103.205 28.186 103.577 28.678C103.949 29.158 104.477 29.398 105.161 29.398C105.497 29.398 105.803 29.344 106.079 29.236C106.367 29.128 106.703 28.954 107.087 28.714L108.113 30.172C107.213 30.904 106.187 31.27 105.035 31.27C104.123 31.27 103.331 31.072 102.659 30.676C101.987 30.268 101.471 29.692 101.111 28.948C100.751 28.204 100.571 27.328 100.571 26.32C100.571 25.312 100.751 24.424 101.111 23.656C101.471 22.876 101.987 22.276 102.659 21.856C103.331 21.424 104.117 21.208 105.017 21.208ZM114.855 21.208C115.695 21.208 116.355 21.466 116.835 21.982C117.315 22.498 117.555 23.206 117.555 24.106V31H115.251V24.466C115.251 23.902 115.149 23.506 114.945 23.278C114.753 23.05 114.465 22.936 114.081 22.936C113.697 22.936 113.343 23.062 113.019 23.314C112.695 23.554 112.383 23.902 112.083 24.358V31H109.779V17.68L112.083 17.446V22.612C112.851 21.676 113.775 21.208 114.855 21.208ZM133.576 18.562L129.886 31H127.06L123.262 18.562H125.818L128.518 28.894L131.146 18.562H133.576ZM137.202 21.478V31H134.898V21.478H137.202ZM136.032 16.654C136.464 16.654 136.812 16.792 137.076 17.068C137.352 17.332 137.49 17.662 137.49 18.058C137.49 18.454 137.352 18.784 137.076 19.048C136.812 19.312 136.464 19.444 136.032 19.444C135.612 19.444 135.264 19.312 134.988 19.048C134.724 18.784 134.592 18.454 134.592 18.058C134.592 17.662 134.724 17.332 134.988 17.068C135.264 16.792 135.612 16.654 136.032 16.654ZM147.988 17.662V31H145.954L145.792 29.794C145.492 30.25 145.108 30.61 144.64 30.874C144.184 31.138 143.662 31.27 143.074 31.27C141.91 31.27 141.016 30.82 140.392 29.92C139.768 29.02 139.456 27.796 139.456 26.248C139.456 25.276 139.612 24.412 139.924 23.656C140.236 22.888 140.68 22.288 141.256 21.856C141.844 21.424 142.522 21.208 143.29 21.208C144.202 21.208 145 21.55 145.684 22.234V17.41L147.988 17.662ZM143.722 29.524C144.13 29.524 144.49 29.428 144.802 29.236C145.114 29.032 145.408 28.72 145.684 28.3V23.944C145.408 23.608 145.126 23.356 144.838 23.188C144.562 23.02 144.238 22.936 143.866 22.936C143.254 22.936 142.768 23.212 142.408 23.764C142.06 24.304 141.886 25.126 141.886 26.23C141.886 27.406 142.042 28.252 142.354 28.768C142.666 29.272 143.122 29.524 143.722 29.524ZM158.565 26.014C158.565 26.134 158.547 26.446 158.511 26.95H152.535C152.607 27.874 152.847 28.534 153.255 28.93C153.663 29.326 154.203 29.524 154.875 29.524C155.295 29.524 155.691 29.458 156.063 29.326C156.435 29.182 156.831 28.966 157.251 28.678L158.205 29.992C157.149 30.844 155.973 31.27 154.677 31.27C153.225 31.27 152.103 30.826 151.311 29.938C150.531 29.05 150.141 27.838 150.141 26.302C150.141 25.33 150.309 24.46 150.645 23.692C150.981 22.912 151.467 22.306 152.103 21.874C152.739 21.43 153.495 21.208 154.371 21.208C155.703 21.208 156.735 21.634 157.467 22.486C158.199 23.326 158.565 24.502 158.565 26.014ZM156.279 25.348C156.279 23.68 155.661 22.846 154.425 22.846C153.861 22.846 153.417 23.056 153.093 23.476C152.781 23.884 152.595 24.544 152.535 25.456H156.279V25.348ZM164.52 21.208C165.924 21.208 167.016 21.658 167.796 22.558C168.588 23.446 168.984 24.67 168.984 26.23C168.984 27.226 168.804 28.108 168.444 28.876C168.084 29.632 167.568 30.22 166.896 30.64C166.224 31.06 165.426 31.27 164.502 31.27C163.098 31.27 162 30.826 161.208 29.938C160.416 29.038 160.02 27.802 160.02 26.23C160.02 25.234 160.2 24.358 160.56 23.602C160.92 22.846 161.436 22.258 162.108 21.838C162.792 21.418 163.596 21.208 164.52 21.208ZM164.52 22.954C163.14 22.954 162.45 24.046 162.45 26.23C162.45 27.358 162.618 28.192 162.954 28.732C163.302 29.26 163.818 29.524 164.502 29.524C165.186 29.524 165.696 29.254 166.032 28.714C166.38 28.174 166.554 27.346 166.554 26.23C166.554 25.114 166.38 24.292 166.032 23.764C165.696 23.224 165.192 22.954 164.52 22.954Z" fill="white"/>
<defs>
<linearGradient id="paint0_linear" x1="32.6848" y1="-7" x2="44.2866" y2="69.8232" gradientUnits="userSpaceOnUse">
<stop stop-color="#F9CE41"/>
<stop offset="1" stop-color="#F99941"/>
</linearGradient>
<linearGradient id="paint1_linear" x1="54.3" y1="43.9" x2="6" y2="9.6" gradientUnits="userSpaceOnUse">
<stop stop-color="#111111"/>
<stop offset="1" stop-color="#494949"/>
</linearGradient>
</defs>
</svg>
